{
  "baseUrl": "https://demoqa.com",
  "loginUrl": "/login",
  "booksUrl": "/books",
  "profileUrl": "/profile",
  "formUrl": "/automation-practice-form",
  "username": "hometest",
  "password": "Test@123"
}
